{"count": 1728, "next": "https://twly.herokuapp.com/api/legislator/?page=101", "previous": "https://twly.herokuapp.com/api/legislator/?page=99", "results": [{"each_terms": [{"votes": [], "contacts": null, "term_end": {"date": "1993-01-31"}, "links": null, "social_media": null, "url": "https://twly.herokuapp.com/api/legislator_terms/1659/", "legislator": "https://twly.herokuapp.com/api/legislator/991/", "ad": 1, "name": "王南復", "gender": "男", "party": "中國國民黨", "caucus": "", "constituency": "河北省", "county": "河北省", "district": null, "in_office": true, "term_start": null, "education": null, "experience": "日本東京成城中學畢業\n日本東京高等工業學校畢業\n天津私立工業學校校長\n直隸省立天津法政專門學校講師\n中國國民黨天津市黨部監察委員\n直隸省臨時執行委員兼工人部長\n河北省黨務指導委員兼常務委員\n河北省執行委員兼財務委員\n中央黨部設計委員\n中央組織部視察\n中央監察委員會專門委員\n河北省黨部常務監察委員", "remark": null, "image": "", "hits": 0}], "url": "https://twly.herokuapp.com/api/legislator/991/", "uid": 1001, "name": "王南復", "former_names": ""}, {"each_terms": [{"votes": [], "contacts": null, "term_end": {"date": "1993-01-31"}, "links": null, "social_media": null, "url": "https://twly.herokuapp.com/api/legislator_terms/1660/", "legislator": "https://twly.herokuapp.com/api/legislator/992/", "ad": 1, "name": "王任遠", "gender": "男", "party": "中國國民黨", "caucus": "", "constituency": "天津市", "county": "天津市", "district": null, "in_office": true, "term_start": null, "education": null, "experience": "北平朝陽大學畢業\n中央訓練團黨政班三期、革命實踐研究院九期結業\n華北黨政軍聯合辦事處秘書長\n三青團天津支團部幹事長\n天津市黨部副主任委員\n教育部平津輔導處主任\n制憲國大代表", "remark": null, "image": "", "hits": 0}], "url": "https://twly.herokuapp.com/api/legislator/992/", "uid": 1002, "name": "王任遠", "former_names": ""}, {"each_terms": [{"votes": [], "contacts": null, "term_end": {"date": "1993-01-31"}, "links": null, "social_media": null, "url": "https://twly.herokuapp.com/api/legislator_terms/1661/", "legislator": "https://twly.herokuapp.com/api/legislator/993/", "ad": 1, "name": "江一平", "gender": "男", "party": "中國國民黨", "caucus": "", "constituency": "職業團體", "county": "職業團體", "district": null, "in_office": true, "term_start": null, "education": null, "experience": "東吳大學法學士\n復旦大學文學士、法學博士\n前上海公共租界工部局華董\n外交部顧問\n復旦大學副校長\n復旦東吳大學教授\n全國律師公會聯合會常務理事\n國民參政會參政員\n制憲國民大會代表", "remark": null, "image": "", "hits": 0}], "url": "https://twly.herokuapp.com/api/legislator/993/", "uid": 1003, "name": "江一平", "former_names": ""}, {"each_terms": [{"votes": [], "contacts": null, "term_end": {"date": "1993-01-31"}, "links": null, "social_media": null, "url": "https://twly.herokuapp.com/api/legislator_terms/1662/", "legislator": "https://twly.herokuapp.com/api/legislator/994/", "ad": 1, "name": "朱啟明", "gender": "男", "party": "中國國民黨", "caucus": "", "constituency": "四川省", "county": "四川省", "district": null, "in_office": true, "term_start": null, "education": null, "experience": "上海化學工業專門學校畢業\n中央訓練團黨政班第二期畢業\n四川省射洪縣實業所長、建設局長、縣立第一高級小學校長、金華中學校長\n射洪縣參議會參議員\n四川省參議會參議員", "remark": null, "image": "", "hits": 0}], "url": "https://twly.herokuapp.com/api/legislator/994/", "uid": 1004, "name": "朱啟明", "former_names": ""}, {"each_terms": [{"votes": [], "contacts": null, "term_end": {"date": "1993-01-31"}, "links": null, "social_media": null, "url": "https://twly.herokuapp.com/api/legislator_terms/1663/", "legislator": "https://twly.herokuapp.com/api/legislator/995/", "ad": 1, "name": "狄膺", "gender": "男", "party": "中國國民黨", "caucus": "", "constituency": "江蘇省", "county": "江蘇省", "district": null, "in_office": true, "term_start": null, "education": null, "experience": "紀元前入上海龍門師範，民三畢業於本科第一部\n民八畢業於北京大學哲學系\n民十往法國里昂大學研究政治經濟並奉江蘇省命調查法國省市行政狀況，十四年冬返國\n十五年八月赴廣州任中央政治會議秘書，嗣或稱政治委員會，仍任秘書，以迄於重慶之國防最高委員會任秘書廳第三處長，均掌議事，致力於立法原則之擬訂\n自二十年十月被任命為立法委員，十九日宣誓就職，初任法制旋改財政並為憲法及土地法委員會委員\n曾被派為首都附近經濟考察團團長\n行憲後被選為立法委員，久任財政委員會委員，第一會期曾兼教育委員會委員\n自南京經廣州、重慶、成都、海口而至台灣", "remark": null, "image": "", "hits": 0}], "url": "https://twly.herokuapp.com/api/legislator/995/", "uid": 1005, "name": "狄膺", "former_names": ""}, {"each_terms": [{"votes": [], "contacts": null, "term_end": {"date": "1993-01-31"}, "links": null, "social_media": null, "url": "https://twly.herokuapp.com/api/legislator_terms/1664/", "legislator": "https://twly.herokuapp.com/api/legislator/996/", "ad": 1, "name": "沈沅", "gender": "男", "party": "中國國民黨", "caucus": "", "constituency": "雲南省", "county": "雲南省", "district": null, "in_office": true, "term_start": null, "education": null, "experience": "國立北京法政專門學校法律本科畢業\n雲南法政學堂教授\n雲南都督府機要祕書\n四川高等審判廳廳長\n川東道道尹\n雲南高等法院第一分院院長\n公務員懲戒委員會委員", "remark": null, "image": "", "hits": 0}], "url": "https://twly.herokuapp.com/api/legislator/996/", "uid": 1006, "name": "沈沅", "former_names": ""}, {"each_terms": [{"votes": [], "contacts": null, "term_end": {"date": "1993-01-31"}, "links": null, "social_media": null, "url": "https://twly.herokuapp.com/api/legislator_terms/1665/", "legislator": "https://twly.herokuapp.com/api/legislator/997/", "ad": 1, "name": "李炳瑞", "gender": "男", "party": "中國國民黨", "caucus": "", "constituency": "僑居國外僑民", "county": "僑居國外僑民", "district": null, "in_office": true, "term_start": null, "education": null, "experience": "加拿大麥基路大學學士\n美國華盛頓大學研究院研究員\n北平英文導報總編輯\n上海英文民族週刊總編輯\n國立中山大學教授\n外交部簡任秘書、駐美大使館一等秘書\n國際貨幣基金會特別專員\n行政院新聞處駐華盛頓辦事處主任\n行政院僑務委員會顧問\n中國國民黨中央監察委員\n英文著作有：（一）中國關稅自主；（二）兩年來中日不宣而戰；（三）新廣州市等書", "remark": null, "image": "", "hits": 0}], "url": "https://twly.herokuapp.com/api/legislator/997/", "uid": 1007, "name": "李炳瑞", "former_names": ""}, {"each_terms": [{"votes": [], "contacts": null, "term_end": {"date": "1993-01-31"}, "links": null, "social_media": null, "url": "https://twly.herokuapp.com/api/legislator_terms/1666/", "legislator": "https://twly.herokuapp.com/api/legislator/998/", "ad": 1, "name": "李錫恩", "gender": "男", "party": "中國國民黨", "caucus": "", "constituency": "吉林省", "county": "吉林省", "district": null, "in_office": true, "term_start": null, "education": null, "experience": "北京大學畢業\n柏林大學畢業\n吉林法政專門學校校長\n吉林省立大學文法學院院長\n國民參政會參政員\n制憲國民大會代表", "remark": null, "image": "", "hits": 0}], "url": "https://twly.herokuapp.com/api/legislator/998/", "uid": 1008, "name": "李錫恩", "former_names": ""}, {"each_terms": [{"votes": [], "contacts": null, "term_end": {"date": "1993-01-31"}, "links": null, "social_media": null, "url": "https://twly.herokuapp.com/api/legislator_terms/1667/", "legislator": "https://twly.herokuapp.com/api/legislator/999/", "ad": 1, "name": "李薌蘅", "gender": "女", "party": "中國國民黨", "caucus": "", "constituency": "吉林省", "county": "吉林省", "district": null, "in_office": true, "term_start": null, "education": null, "experience": "國立北平女子師範大學畢業\n吉林女子師範學校教員\n吉林女子中學教務主任\n哈爾濱第一女子中學校長\n制憲國民大會代表", "remark": null, "image": "", "hits": 0}], "url": "https://twly.herokuapp.com/api/legislator/999/", "uid": 1009, "name": "李薌蘅", "former_names": ""}, {"each_terms": [{"votes": [], "contacts": null, "term_end": {"date": "1993-01-31"}, "links": null, "social_media": null, "url": "https://twly.herokuapp.com/api/legislator_terms/1668/", "legislator": "https://twly.herokuapp.com/api/legislator/1000/", "ad": 1, "name": "林作民", "gender": "男", "party": "中國國民黨", "caucus": "", "constituency": "廣東省", "county": "廣東省", "district": null, "in_office": true, "term_start": null, "education": null, "experience": "日本明治大學畢業\n中央航空學校洛陽分校政訓科科長\n三民主義青年團中央團部海外組組長\n中國國民黨中央海外部專門委員\n三民主義青年團廣州支團幹事長\n中國國民黨廣州特別市黨部副主任委員", "remark": null, "image": "", "hits": 0}], "url": "https://twly.herokuapp.com/api/legislator/1000/", "uid": 1010, "name": "林作民", "former_names": ""}]}